{
  "$schema": "../../node_modules/ng-packagr/ng-package.schema.json",
  "dest": "../../dist/high-chart-extention",
  "lib": {
    "entryFile": "src/public_api.ts"
  },
  "whitelistedNonPeerDependencies": [
    "highcharts"
  ]
}